…
```r
#Make a new data frame with the elements you want from the original `homerange`
snake_data <- select(homerange, "taxon", "common.name", "mean.hra.m2")

#Filter the data frame so that you only have snakes.
snake_data <- filter(snake_data, taxon == "snakes")

#Put the mean.hra.m2 in ascending order using `arrange`
arrange(snake_data, mean.hra.m2)
```

```
## # A tibble: 41 x 3
##    taxon  common.name          mean.hra.m2
##    <fct>  <chr>                      <dbl>
##  1 snakes namaqua dwarf adder         200 
##  2 snakes eastern worm snake          253 
##  3 snakes butlers garter snake        600 
##  4 snakes western worm snake          700 
##  5 snakes snubnosed viper            2400 
##  6 snakes chinese pit viper          2614.
##  7 snakes ringneck snake             6476 
##  8 snakes cottonmouth               10655 
##  9 snakes redbacked ratsnake        15400 
## 10 snakes gopher snake              17400 
## # … with 31 more rows
```
…
