…
2. Notice that we have some neutral superheros! Who are they?


```r
superhero_info %>% 
  select(alignment, name) %>% 
  filter(alignment=="neutral")
```

```
## # A tibble: 24 x 2
##    alignment name        
##    <chr>     <chr>       
##  1 neutral   Bizarro     
##  2 neutral   Black Flash 
##  3 neutral   Captain Cold
##  4 neutral   Copycat     
##  5 neutral   Deadpool    
##  6 neutral   Deathstroke 
##  7 neutral   Etrigan     
##  8 neutral   Galactus    
##  9 neutral   Gladiator   
## 10 neutral   Indigo      
## # … with 14 more rows
```
…
```
##  [1] "name"       "gender"     "eye_color"  "race"       "hair_color"
##  [6] "height"     "publisher"  "skin_color" "alignment"  "weight"
```


```r
superhero_info %>% 
  select(name, alignment, race)
```

```
## # A tibble: 734 x 3
##    name          alignment race             
##    <chr>         <chr>     <chr>            
##  1 A-Bomb        good      Human            
##  2 Abe Sapien    good      Icthyo Sapien    
##  3 Abin Sur      good      Ungaran          
##  4 Abomination   bad       Human / Radiation
##  5 Abraxas       bad       Cosmic Entity    
##  6 Absorbing Man bad       Human            
##  7 Adam Monroe   good      <NA>             
##  8 Adam Strange  good      Human            
##  9 Agent 13      good      <NA>             
## 10 Agent Bob     good      Human            
## # … with 724 more rows
```

## Not Human
4. List all of the superheros that are not human.


```r
superhero_info %>% 
  select(name, alignment, race) %>%
  filter(race != "Human")
```

```
## # A tibble: 222 x 3
##    name         alignment race             
##    <chr>        <chr>     <chr>            
##  1 Abe Sapien   good      Icthyo Sapien    
##  2 Abin Sur     good      Ungaran          
##  3 Abomination  bad       Human / Radiation
##  4 Abraxas      bad       Cosmic Entity    
##  5 Ajax         bad       Cyborg           
##  6 Alien        bad       Xenomorph XX121  
##  7 Amazo        bad       Android          
##  8 Angel        good      Vampire          
##  9 Angel Dust   good      Mutant           
## 10 Anti-Monitor bad       God / Eternal    
## # … with 212 more rows
```
…
```r
bad_guys <-
  superhero_info %>%
  select(name, alignment, race, gender, height) %>%
  filter(alignment == "bad")

bad_guys
```

```
## # A tibble: 207 x 5
##    name          alignment race              gender height
##    <chr>         <chr>     <chr>             <chr>   <dbl>
##  1 Abomination   bad       Human / Radiation Male      203
##  2 Abraxas       bad       Cosmic Entity     Male       NA
##  3 Absorbing Man bad       Human             Male      193
##  4 Air-Walker    bad       <NA>              Male      188
##  5 Ajax          bad       Cyborg            Male      193
##  6 Alex Mercer   bad       Human             Male       NA
##  7 Alien         bad       Xenomorph XX121   Male      244
##  8 Amazo         bad       Android           Male      257
##  9 Ammo          bad       Human             Male      188
## 10 Angela        bad       <NA>              Female     NA
## # … with 197 more rows
```

```r
#Then find the males over 200 inches
bad_guys %>% 
  select(name, alignment, race, gender, height) %>% 
  filter(gender == "Male", height > 200)
```

```
## # A tibble: 22 x 5
##    name           alignment race              gender height
##    <chr>          <chr>     <chr>             <chr>   <dbl>
##  1 Abomination    bad       Human / Radiation Male      203
##  2 Alien          bad       Xenomorph XX121   Male      244
##  3 Amazo          bad       Android           Male      257
##  4 Apocalypse     bad       Mutant            Male      213
##  5 Bane           bad       Human             Male      203
##  6 Darkseid       bad       New God           Male      267
##  7 Doctor Doom    bad       Human             Male      201
##  8 Doctor Doom II bad       <NA>              Male      201
##  9 Doomsday       bad       Alien             Male      244
## 10 Killer Croc    bad       Metahuman         Male      244
## # … with 12 more rows
```
…
```r
#listed as "No Hair", so...

bad_guys <-
  superhero_info %>%
  select(name, alignment, race, gender, height, hair_color) %>%
  filter(hair_color == "No Hair", alignment=="bad")

#print this out
bad_guys
```

```
## # A tibble: 35 x 6
##    name          alignment race              gender height hair_color
##    <chr>         <chr>     <chr>             <chr>   <dbl> <chr>     
##  1 Abomination   bad       Human / Radiation Male    203   No Hair   
##  2 Absorbing Man bad       Human             Male    193   No Hair   
##  3 Alien         bad       Xenomorph XX121   Male    244   No Hair   
##  4 Annihilus     bad       <NA>              Male    180   No Hair   
##  5 Anti-Monitor  bad       God / Eternal     Male     61   No Hair   
##  6 Black Manta   bad       Human             Male    188   No Hair   
##  7 Bloodwraith   bad       <NA>              Male     30.5 No Hair   
##  8 Brainiac      bad       Android           Male    198   No Hair   
##  9 Darkseid      bad       New God           Male    267   No Hair   
## 10 Darth Vader   bad       Cyborg            Male    198   No Hair   
## # … with 25 more rows
```
…
```r
#Rewrite to includ hair length

good_guys <-
  superhero_info %>%
  select(name, alignment, race, gender, height, hair_color) %>%
  filter(alignment == "good", hair_color=="No Hair")

good_guys
```

```
## # A tibble: 37 x 6
##    name            alignment race          gender height hair_color
##    <chr>           <chr>     <chr>         <chr>   <dbl> <chr>     
##  1 A-Bomb          good      Human         Male      203 No Hair   
##  2 Abe Sapien      good      Icthyo Sapien Male      191 No Hair   
##  3 Abin Sur        good      Ungaran       Male      185 No Hair   
##  4 Beta Ray Bill   good      <NA>          Male      201 No Hair   
##  5 Bishop          good      Mutant        Male      198 No Hair   
##  6 Black Lightning good      <NA>          Male      185 No Hair   
##  7 Blaquesmith     good      <NA>          <NA>       NA No Hair   
##  8 Bloodhawk       good      Mutant        Male       NA No Hair   
##  9 Crimson Dynamo  good      <NA>          Male      180 No Hair   
## 10 Donatello       good      Mutant        Male       NA No Hair   
## # … with 27 more rows
```
…
## Height to Weight Ratio

13. It's easy to be strong when you are heavy and tall, but who is heavy and short? Which superheros have the lowest height to weight ratio?


```r
superhero_info %>% 
  mutate(ratio=height/weight) %>%
  select(name, ratio) %>% 
  arrange(ratio)
```

```
## # A tibble: 734 x 2
##    name         ratio
##    <chr>        <dbl>
##  1 Giganta     0.0992
##  2 Utgard-Loki 0.262 
##  3 Darkseid    0.327 
##  4 Juggernaut  0.336 
##  5 Red Hulk    0.338 
##  6 Sasquatch   0.339 
##  7 Hulk        0.387 
##  8 Bloodaxe    0.440 
##  9 Thanos      0.454 
## 10 A-Bomb      0.460 
## # … with 724 more rows
```
…
## `kinesis`

15. We are only interested in the superheros that do some kind of "kinesis". How would we isolate them from the `superhero_powers` data?


```r
kinesis<-
superhero_powers %>% 
  select(hero_names, contains("kinesis"))

kinesis
```

```
## # A tibble: 667 x 10
##    hero_names cryokinesis electrokinesis telekinesis hyperkinesis hypnokinesis
##    <chr>      <lgl>       <lgl>          <lgl>       <lgl>        <lgl>       
##  1 3-D Man    FALSE       FALSE          FALSE       FALSE        FALSE       
##  2 A-Bomb     FALSE       FALSE          FALSE       FALSE        FALSE       
##  3 Abe Sapien FALSE       FALSE          FALSE       FALSE        FALSE       
##  4 Abin Sur   FALSE       FALSE          FALSE       FALSE        FALSE       
##  5 Abominati… FALSE       FALSE          FALSE       FALSE        FALSE       
##  6 Abraxas    FALSE       FALSE          FALSE       FALSE        FALSE       
##  7 Absorbing… FALSE       FALSE          FALSE       FALSE        FALSE       
##  8 Adam Monr… FALSE       FALSE          FALSE       FALSE        FALSE       
##  9 Adam Stra… FALSE       FALSE          FALSE       FALSE        FALSE       
## 10 Agent Bob  FALSE       FALSE          FALSE       FALSE        FALSE       
## # … with 657 more rows, and 4 more variables: thirstokinesis <lgl>,
## #   biokinesis <lgl>, terrakinesis <lgl>, vitakinesis <lgl>
```
…
