…
There are 32 herbivores.

7. We are interested in two groups; small and large mammals. Let's define small as less than or equal to 1kg body weight and large as greater than or equal to 200kg body weight. Make two new dataframes (large and small) based on these parameters.

_Here, I used `subset()` to define these groups from the main dataframe._


```r
#First the small animals.
small <- subset(sleep, bodywt <= 1)
small
```

```
## # A tibble: 36 x 11
##    name  genus vore  order conservation sleep_total sleep_rem sleep_cycle awake
##    <chr> <chr> <chr> <chr> <chr>              <dbl>     <dbl>       <dbl> <dbl>
##  1 Owl … Aotus omni  Prim… <NA>                17         1.8      NA       7  
##  2 Grea… Blar… omni  Sori… lc                  14.9       2.3       0.133   9.1
##  3 Vesp… Calo… <NA>  Rode… <NA>                 7        NA        NA      17  
##  4 Guin… Cavis herbi Rode… domesticated         9.4       0.8       0.217  14.6
##  5 Chin… Chin… herbi Rode… domesticated        12.5       1.5       0.117  11.5
##  6 Star… Cond… omni  Sori… lc                  10.3       2.2      NA      13.7
##  7 Afri… Cric… omni  Rode… <NA>                 8.3       2        NA      15.7
##  8 Less… Cryp… omni  Sori… lc                   9.1       1.4       0.15   14.9
##  9 Big … Epte… inse… Chir… lc                  19.7       3.9       0.117   4.3
## 10 Euro… Erin… omni  Erin… lc                  10.1       3.5       0.283  13.9
## # … with 26 more rows, and 2 more variables: brainwt <dbl>, bodywt <dbl>
```
…
